br\gov\dataprev\archetype\pageobjects\exemplo\PesquisaGenericaExemploPO.class
br\gov\dataprev\archetype\pageobjects\exemplo\HomeExemploPO.class
br\gov\dataprev\archetype\roteiros\exemplo\PesquisaGenericaExemploTeste.class
